{
    "window.title": "${activeEditorShort}${separator}${folderName}",
    "workbench.startupEditor": "newUntitledFile",
    "workbench.colorCustomizations": {
        "terminal.background": "#1e1e1e",
        "terminal.foreground": "#eeeeee",
        "terminal.ansiBlack": "#202020",
        "terminal.ansiBlue": "#268bd2",
        "terminal.ansiCyan": "#2aa198",
        "terminal.ansiGreen": "#859901",
        "terminal.ansiMagenta": "#d33682",
        "terminal.ansiRed": "#dc322f",
        "terminal.ansiWhite": "#eee8d5",
        "terminal.ansiYellow": "#b58901",
        "terminal.ansiBrightBlack": "#586e75",
        "terminal.ansiBrightBlue": "#839496",
        "terminal.ansiBrightCyan": "#93a1a1",
        "terminal.ansiBrightGreen": "#586e75",
        "terminal.ansiBrightMagenta": "#6c6ec6",
        "terminal.ansiBrightRed": "#cb4b16",
        "terminal.ansiBrightWhite": "#fdf6e3",
        "terminal.ansiBrightYellow": "#657b83",
        "terminalCursor.foreground": "#839496",
        "terminalCursor.background": "#003541"
    },
    "workbench.colorTheme": "Default Dark+",
    "workbench.settings.editor": "json",
    "workbench.editor.untitled.hint": "hidden",
    "workbench.iconTheme": "material-icon-theme",
    "editor.fontFamily": "'Cascadia Code',  Consolas, 'Courier New', monospace",
    "editor.fontSize": 16,
    "editor.lineHeight": 24,
    "editor.smoothScrolling": true,
    "editor.cursorSmoothCaretAnimation": true,
    "editor.formatOnSave": true,
    "editor.defaultFormatter": "esbenp.prettier-vscode",
    "editor.minimap.enabled": false,
    "editor.tabSize": 4,
    "[yaml]": {
        "editor.insertSpaces": true,
        "editor.tabSize": 4,
        "editor.autoIndent": "advanced"
    },
    "editor.wordWrapColumn": 120,
    "explorer.confirmDragAndDrop": false,
    "terminal.integrated.fontSize": 16,
    "terminal.integrated.fontFamily": "Cascadia Code PL, monospace",
    "typescript.surveys.enabled": false,
    "typescript.preferences.quoteStyle": "single",
    "prettier.trailingComma": "all",
    "prettier.tabWidth": 4,
    "prettier.singleQuote": true,
    "prettier.printWidth": 500,
    "prettier.documentSelectors": ["**/*.svelte"],
    "remote.SSH.remotePlatform": {
        "davidplugge.de": "linux",
        "raspberry": "linux",
        "pidrone3": "linux",
        "homeserver": "linux",
        "davidplugge": "linux",
        "raspberrypi": "linux",
        "vserver": "linux",
        "gaming": "linux",
        "oracle-vserver": "linux",
        "vserver-oracle": "linux",
        "bastis-baumschulen.de": "linux",
        "bastis-baumschulen": "linux",
        "gaming-server": "linux",
        "sus-reiste-test": "linux",
        "gaming-server-aarch": "linux"
    },
    "emmet.includeLanguages": {
        "HTML (EEx)": "html"
    },
    "[svelte]": {
        "editor.defaultFormatter": "svelte.svelte-vscode"
    },
    "svelte.enable-ts-plugin": true,
    "svelte.ask-to-enable-ts-plugin": false,
    "workbench.editorAssociations": {
        "*.ipynb": "jupyter-notebook"
    },
    "notebook.cellToolbarLocation": {
        "default": "right",
        "jupyter-notebook": "left"
    },
    "terminal.integrated.defaultProfile.linux": "zsh",
    "docker.enableDockerComposeLanguageService": true,
    "[ignore]": {
        "editor.defaultFormatter": "foxundermoon.shell-format"
    },
    "[dockerfile]": {
        "editor.defaultFormatter": "ms-azuretools.vscode-docker"
    },
    "explorer.fileNesting.enabled": false,
    "explorer.fileNesting.expand": false,
    "explorer.fileNesting.patterns": {
        "*.ts": "${capture}.js",
        "*.js": "${capture}.js.map, ${capture}.min.js, ${capture}.d.ts",
        "*.jsx": "${capture}.js",
        "*.tsx": "${capture}.ts",
        "tsconfig.json": "tsconfig.*.json",
        "package.json": "package-lock.json, yarn.lock, pnpm-lock.yaml, pnpm-workspace.yaml, .pnpmfile.cjs",
        ".env": ".env*",
        ".eslintrc*": ".eslint*",
        ".prettierrc*": ".prettier*"
    },
    "[dotenv]": {
        "editor.defaultFormatter": "foxundermoon.shell-format"
    },
    "[shellscript]": {
        "editor.defaultFormatter": "foxundermoon.shell-format"
    },
    "files.associations": {
        "*.svx": "markdown",
        "*.css": "tailwindcss"
    },
    "[properties]": {
        "editor.defaultFormatter": "foxundermoon.shell-format"
    },
    "[prisma]": {
        "editor.defaultFormatter": "Prisma.prisma"
    },
    "[rust]": {
        "editor.defaultFormatter": "rust-lang.rust-analyzer"
    }
}
